…
    ## [1] 134

There are 134 aisles

Aisles with the most products ordered

``` r
instacart %>% 
  group_by(aisle) %>% 
  count() %>% 
  arrange(desc(n))
```

    ## # A tibble: 134 x 2
    ## # Groups:   aisle [134]
    ##    aisle                              n
    ##    <chr>                          <int>
    ##  1 fresh vegetables              150609
    ##  2 fresh fruits                  150473
    ##  3 packaged vegetables fruits     78493
    ##  4 yogurt                         55240
    ##  5 packaged cheese                41699
    ##  6 water seltzer sparkling water  36617
    ##  7 milk                           32644
    ##  8 chips pretzels                 31269
    ##  9 soy lactosefree                26240
    ## 10 bread                          23635
    ## # ... with 124 more rows
…
